{
    "sources": ["lib/api.js", "api_tests.js", "lib/util.js", "lib/text2d.js", "lib/chat.js", "lib/skyrim.js", "lib/dialog.js",
        "systems/chat.js", "systems/event-bindings.js", "systems/datasearch-v18.js"]
}
